<svg width="18" height="24" viewBox="0 0 18 24" fill="none" xmlns="http://www.w3.org/2000/svg">
<path d="M5.12375 23.9997C2.45588 15.2086 8.09303 11.9988 8.09303 11.9988C7.69862 16.6898 10.3644 20.3444 10.3644 20.3444C11.3448 20.0486 13.2162 18.666 13.2162 18.666C13.2162 20.3444 12.2288 23.9976 12.2288 23.9976C12.2288 23.9976 15.6855 21.3248 16.7736 16.8856C17.8603 12.4464 14.7036 7.98964 14.7036 7.98964C14.8938 11.1316 13.8309 14.2219 11.7483 16.5828C11.8525 16.4625 11.9399 16.3289 12.0071 16.1842C12.3812 15.4359 12.9819 13.4911 12.6302 8.98756C12.1351 2.66578 6.40699 0 6.40699 0C6.90071 3.85181 5.42026 4.73924 1.95237 12.0505C-1.51551 19.3605 5.12375 23.9997 5.12375 23.9997Z" fill="#1F2125"/>
</svg>
